%YAML 1.1
%TAG !u! tag:unity3d.com,2011:
--- !u!1 &8405194684621366086
GameObject:
  m_ObjectHideFlags: 0
  m_CorrespondingSourceObject: {fileID: 0}
  m_PrefabInstance: {fileID: 0}
  m_PrefabAsset: {fileID: 0}
  serializedVersion: 6
  m_Component:
  - component: {fileID: 8405194684621366083}
  - component: {fileID: 8405194684621366080}
  - component: {fileID: 8405194684621366081}
  - component: {fileID: 8405194684621366082}
  m_Layer: 0
  m_Name: DeathPin
  m_TagString: Untagged
  m_Icon: {fileID: 0}
  m_NavMeshLayer: 0
  m_StaticEditorFlags: 0
  m_IsActive: 1
--- !u!4 &8405194684621366083
Transform:
  m_ObjectHideFlags: 0
  m_CorrespondingSourceObject: {fileID: 0}
  m_PrefabInstance: {fileID: 0}
  m_PrefabAsset: {fileID: 0}
  m_GameObject: {fileID: 8405194684621366086}
  m_LocalRotation: {x: 0, y: 0, z: 0, w: 1}
  m_LocalPosition: {x: 5, y: 1, z: 0}
  m_LocalScale: {x: 0.5, y: 0.5, z: 1}
  m_Children: []
  m_Father: {fileID: 0}
  m_RootOrder: 0
  m_LocalEulerAnglesHint: {x: 0, y: 0, z: 0}
--- !u!212 &8405194684621366080
SpriteRenderer:
  m_ObjectHideFlags: 0
  m_CorrespondingSourceObject: {fileID: 0}
  m_PrefabInstance: {fileID: 0}
  m_PrefabAsset: {fileID: 0}
  m_GameObject: {fileID: 8405194684621366086}
  m_Enabled: 1
  m_CastShadows: 0
  m_ReceiveShadows: 0
  m_DynamicOccludee: 1
  m_MotionVectors: 1
  m_LightProbeUsage: 1
  m_ReflectionProbeUsage: 1
  m_RenderingLayerMask: 1
  m_RendererPriority: 0
  m_Materials:
  - {fileID: 10754, guid: 0000000000000000f000000000000000, type: 0}
  m_StaticBatchInfo:
    firstSubMesh: 0
    subMeshCount: 0
  m_StaticBatchRoot: {fileID: 0}
  m_ProbeAnchor: {fileID: 0}
  m_LightProbeVolumeOverride: {fileID: 0}
  m_ScaleInLightmap: 1
  m_PreserveUVs: 0
  m_IgnoreNormalsForChartDetection: 0
  m_ImportantGI: 0
  m_StitchLightmapSeams: 0
  m_SelectedEditorRenderState: 0
  m_MinimumChartSize: 4
  m_AutoUVMaxDistance: 0.5
  m_AutoUVMaxAngle: 89
  m_LightmapParameters: {fileID: 0}
  m_SortingLayerID: 0
  m_SortingLayer: 0
  m_SortingOrder: 0
  m_Sprite: {fileID: 21300000, guid: bd1989b4e42a0454097f657dfb368bd8, type: 3}
  m_Color: {r: 1, g: 1, b: 1, a: 1}
  m_FlipX: 0
  m_FlipY: 0
  m_DrawMode: 0
  m_Size: {x: 4.56, y: 4.68}
  m_AdaptiveModeThreshold: 0.5
  m_SpriteTileMode: 0
  m_WasSpriteAssigned: 1
  m_MaskInteraction: 0
  m_SpriteSortPoint: 0
--- !u!60 &8405194684621366081
PolygonCollider2D:
  m_ObjectHideFlags: 0
  m_CorrespondingSourceObject: {fileID: 0}
  m_PrefabInstance: {fileID: 0}
  m_PrefabAsset: {fileID: 0}
  m_GameObject: {fileID: 8405194684621366086}
  m_Enabled: 1
  m_Density: 1
  m_Material: {fileID: 0}
  m_IsTrigger: 0
  m_UsedByEffector: 0
  m_UsedByComposite: 0
  m_Offset: {x: 0, y: 0}
  m_SpriteTilingProperty:
    border: {x: 0, y: 0, z: 0, w: 0}
    pivot: {x: 0.5, y: 0.5}
    oldSize: {x: 4.56, y: 4.68}
    newSize: {x: 4.56, y: 4.68}
    adaptiveTilingThreshold: 0.5
    drawMode: 0
    adaptiveTiling: 0
  m_AutoTiling: 0
  m_Points:
    m_Paths:
    - - {x: 1.7099999, y: -2.04}
      - {x: 1.8, y: -2.02}
      - {x: 1.87, y: -1.99}
      - {x: 1.9699999, y: -1.9}
      - {x: 2, y: -1.8499999}
      - {x: 2.04, y: -1.65}
      - {x: 2.04, y: -1.51}
      - {x: 2.11, y: -1.16}
      - {x: 2.1, y: -0.89}
      - {x: 2.08, y: -0.84999996}
      - {x: 2.09, y: -0.66999996}
      - {x: 2.2, y: -0.48999998}
      - {x: 2.23, y: -0.41}
      - {x: 2.24, y: -0.37}
      - {x: 2.24, y: -0.29999998}
      - {x: 2.21, y: -0.24}
      - {x: 2.1399999, y: -0.19999999}
      - {x: 2.01, y: -0.22}
      - {x: 1.63, y: -0.29999998}
      - {x: 1.53, y: -0.26}
      - {x: 1.66, y: -0.22}
      - {x: 1.93, y: -0.14}
      - {x: 2.05, y: -0.049999997}
      - {x: 2.03, y: 0.21}
      - {x: 1.99, y: 0.44}
      - {x: 1.9799999, y: 0.61}
      - {x: 1.9699999, y: 0.87}
      - {x: 1.93, y: 1.14}
      - {x: 1.9, y: 1.36}
      - {x: 1.77, y: 1.62}
      - {x: 1.6999999, y: 1.7099999}
      - {x: 1.5699999, y: 1.8499999}
      - {x: 1.4699999, y: 1.9499999}
      - {x: 1.22, y: 2.1}
      - {x: 0.98999995, y: 2.19}
      - {x: 0.77, y: 2.23}
      - {x: 0.45999998, y: 2.23}
      - {x: 0.26999998, y: 2.2}
      - {x: 0.04, y: 2.1}
      - {x: -0.02, y: 2.05}
      - {x: -0.22999999, y: 1.8499999}
      - {x: -0.39, y: 1.63}
      - {x: -0.48999998, y: 1.4599999}
      - {x: -0.55, y: 1.29}
      - {x: -0.57, y: 1.14}
      - {x: -0.57, y: 0.42}
      - {x: -0.56, y: 0.41}
      - {x: -0.58, y: 0.14}
      - {x: -0.65, y: -0.13}
      - {x: -0.65, y: -0.19999999}
      - {x: -0.65999997, y: -0.55}
      - {x: -0.7, y: -0.7}
      - {x: -1.17, y: -1.0699999}
      - {x: -1.27, y: -1.15}
      - {x: -1.37, y: -1.24}
      - {x: -1.5799999, y: -1.4499999}
      - {x: -1.62, y: -1.4399999}
      - {x: -1.8199999, y: -1.48}
      - {x: -2.07, y: -1.62}
      - {x: -2.1299999, y: -1.67}
      - {x: -2.1699998, y: -1.73}
      - {x: -2.1699998, y: -1.9}
      - {x: -2.12, y: -1.9599999}
      - {x: -2.02, y: -1.9799999}
      - {x: -1.55, y: -1.9799999}
      - {x: -1.43, y: -2}
      - {x: -1.28, y: -2.08}
      - {x: -1.18, y: -2.09}
      - {x: -0.95, y: -2.12}
      - {x: -0.53999996, y: -2.12}
      - {x: -0.37, y: -2.09}
      - {x: -0.22999999, y: -2.05}
      - {x: -0.03, y: -2}
      - {x: 0.14, y: -2.01}
      - {x: 0.44, y: -2.1699998}
      - {x: 0.55, y: -2.22}
      - {x: 0.62, y: -2.23}
      - {x: 0.79999995, y: -2.23}
      - {x: 0.89, y: -2.22}
      - {x: 1.0799999, y: -2.18}
      - {x: 1.2099999, y: -2.1299999}
      - {x: 1.41, y: -2.04}
--- !u!114 &8405194684621366082
MonoBehaviour:
  m_ObjectHideFlags: 0
  m_CorrespondingSourceObject: {fileID: 0}
  m_PrefabInstance: {fileID: 0}
  m_PrefabAsset: {fileID: 0}
  m_GameObject: {fileID: 8405194684621366086}
  m_Enabled: 1
  m_EditorHideFlags: 0
  m_Script: {fileID: 11500000, guid: e13678461c4cfcb479470eb564a61275, type: 3}
  m_Name: 
  m_EditorClassIdentifier: 
